Radicación|organismo
CONCORDIA - JDO DE FLIA Y PENAL DE NIÑOS Y ADOLESCENTES N°1|jdofam0101con
CONCORDIA - JDO DE FLIA Y PENAL DE NIÑOS Y ADOLESCENTES N°2|jdofam0201con
CONCORDIA - JUZGADO CIVIL Y COMERCIAL N°1|jdocco0100con
CONCORDIA - JUZGADO CIVIL Y COMERCIAL N°2|jdocco0200con
CONCORDIA - JUZGADO CIVIL Y COMERCIAL N°3|jdocco0300con
CONCORDIA - JUZGADO CIVIL Y COMERCIAL N°4|jdocco0400con
CONCORDIA - JUZGADO CIVIL Y COMERCIAL N°5 (CONC. Y QUIEBRAS Y PROC. DE EJECUCION)|jdocco0501con
CONCORDIA - JUZGADO DE PAZ|jdopaz0000con
CONCORDIA - JUZGADO DEL TRABAJO N°2|jdolab0200con
CONCORDIA - JUZGADO DEL TRABAJO N°3|jdolab0300con
CONCORDIA - JUZGADO DEL TRABAJO N°4|jdolab0400con
CONCORDIA - JUZGADO DEL TRABAJO N°5 (COMPETENCIA CYC)|jdocco0600con
GUALEGUAYCHU - CAMARA DE APELACIONES - SALA LABORAL|---
GUALEGUAYCHU - JDO DE FLIA Y PENAL DE NIÑOS Y ADOLESCENTES - SEC N°1|jdofam0001gch
GUALEGUAYCHU - JDO DE FLIA Y PENAL DE NIÑOS Y ADOLESCENTES - SEC N°2|jdofam0002gch
GUALEGUAYCHU - JUZGADO CIVIL Y COMERCIAL N°1|jdocco0100gch
GUALEGUAYCHU - JUZGADO CIVIL Y COMERCIAL N°2|jdocco0200gch
GUALEGUAYCHU - JUZGADO CIVIL Y COMERCIAL N°3|jdocco0300gch
GUALEGUAYCHU - JUZGADO DE PAZ|jdopaz0000gch
GUALEGUAYCHU - JUZGADO DEL TRABAJO N°1|jdolab0100gch
GUALEGUAYCHU - JUZGADO DEL TRABAJO N°2|jdolab0200gch
GUALEGUAYCHU - JUZGADO DEL TRABAJO N°3|jdolab0300gch
PARANA - JUZGADO CIVIL y COMERCIAL N°1|jdocco0100pna
PARANA - JUZGADO CIVIL y COMERCIAL N°10 - SEC. N°1|jdocco1001pna
PARANA - JUZGADO CIVIL y COMERCIAL N°10 - SEC. N°2|jdocco1002pna
PARANA - JUZGADO CIVIL y COMERCIAL N°2|jdocco0200pna
PARANA - JUZGADO CIVIL y COMERCIAL N°3|jdocco0300pna
PARANA - JUZGADO CIVIL y COMERCIAL N°4|jdocco0400pna
PARANA - JUZGADO CIVIL y COMERCIAL N°5|jdocco0500pna
PARANA - JUZGADO CIVIL y COMERCIAL N°6|jdocco0600pna
PARANA - JUZGADO CIVIL y COMERCIAL N°7|jdocco0700pna
PARANA - JUZGADO CIVIL y COMERCIAL N°8|jdocco0800pna
PARANA - JUZGADO CIVIL y COMERCIAL N°9 - SEC. N°1|jdocco0901pna
PARANA - JUZGADO CIVIL y COMERCIAL N°9 - SEC. N°2|jdocco0902pna
PARANA - JUZGADO DE FAMILIA N° 1 - SEC. N° 1 (CIVIL)|jdofam0100pna
PARANA - JUZGADO DE FAMILIA N° 1 - SEC. N° 1 (PROTECCIONAL)|jdofam0100pna
PARANA - JUZGADO DE FAMILIA N° 1 (Uso exclusivo MUI PARANA)|jdofam0100pna
PARANA - JUZGADO DE FAMILIA N° 2 - SEC. N° 2 (CIVIL)|jdofam0200pna
PARANA - JUZGADO DE FAMILIA N° 2 - SEC. N° 2 (PROTECCIONAL)|jdofam0200pna
PARANA - JUZGADO DE FAMILIA N° 3 - SEC. N° 3 (CIVIL)|jdofam0300pna
PARANA - JUZGADO DE FAMILIA N° 3 - SEC. N° 3 (PROTECCIONAL)|jdofam0300pna
PARANA - JUZGADO DE FAMILIA N° 4 - SEC. N° 4 (CIVIL)|jdofam0400pna
PARANA - JUZGADO DE FAMILIA N° 4 - SEC. N° 4 (PROTECCIONAL)|jdofam0400pna
PARANA - JUZGADO DE PAZ N°1|jdopaz0100pna
PARANA - JUZGADO DE PAZ N°2|jdopaz0200pna
PARANA - JUZGADO LABORAL N°1|jdolab0100pna
PARANA - JUZGADO LABORAL N°2|jdolab0200pna
PARANA - JUZGADO LABORAL N°3|jdolab0300pna
PARANA - JUZGADO LABORAL N°4|jdolab0400pna
CONCEPCION DEL URUGUAY - JUZGADO DE PAZ|jdopaz0000uru
CONCEPCION DEL URUGUAY - JUZGADO CIVIL Y COMERCIAL N°1|jdocco0100uru
CONCEPCION DEL URUGUAY - JDO DE FLIA Y PENAL DE NIÑOS Y ADOL N°1 - SEC N°1|jdofam0001uru
CONCEPCION DEL URUGUAY - JUZGADO CIVIL Y COMERCIAL N°2|jdocco0200uru
CONCEPCION DEL URUGUAY - JDO DE FLIA Y PENAL DE NIÑOS Y ADOL N°1 - SEC N°2|jdofam0002uru
CONCEPCION DEL URUGUAY - JUZGADO CIVIL Y COMERCIAL N°3 - EJECUCIONES|jdocco0301uru
CONCEPCION DEL URUGUAY - JUZGADO DEL TRABAJO N°2|jdolab0200uru
CONCEPCION DEL URUGUAY - JUZGADO DEL TRABAJO N°1|jdolab0100uru
CONCEPCION DEL URUGUAY - JUZGADO DEL TRABAJO N°3|jdolab0300uru
CONCEPCION DEL URUGUAY - OFICINA DE NOTIFICACIONES Y MANDAMIENTOS|-------------
CONCEPCION DEL URUGUAY - JUZGADO CIVIL Y COMERCIAL N°3 - CONCURSOS Y QUIEBRAS|jdocco0302uru
GUALEGUAY - JUZGADO LABORAL|jdolab0000gay
GUALEGUAY - JUZGADO DE PAZ|jdopaz0000gay
GUALEGUAY - JUZGADO DE FAMILIA|jdofam0000gay
GUALEGUAY - JUZGADO CIVIL y COMERCIAL N°1|jdocco0100gay
GUALEGUAY - JUZGADO CIVIL y COMERCIAL N°2|jdocco0200gay
PARANA - CAMARA LABORAL SALA I|camlab0301pna
PARANA - CAMARA LABORAL SALA II|camlab0302pna
PARANA - CAMARA CIVIL Y COMERCIAL SALA I|camcco0201pna
PARANA - CAMARA CIVIL Y COMERCIAL SALA II|camcco0202pna
PARANA - CAMARA CIVIL Y COMERCIAL SALA III|camcco0203pna
CONCORDIA - CAMARA DEL TRABAJO '|camlab0000con
CONCORDIA - CAMARA CIVIL Y COMERCIAL SALA I|camcco0100con
CONCORDIA - CAMARA CIVIL Y COMERCIAL SALA II|camcco0200con
CONCEPCION DEL URUGUAY - CAMARA - SALA CIVIL Y COMERCIAL|camcco0000uru
CONCEPCION DEL URUGUAY - CAMARA DEL TRABAJO|camlab0000uru
