idorganismo,organismo_AGH,organismoAPGyE
223,Defensoría Pobres Y Menores,def0000000cha
275,Equipo Interdisciplinario del Fuero Familia y Menores,eincco0001cha
NA,Equipo de Probation,equpen0001cha
150,Jdo Civil Y Comercial Nº 1,jdocco0100cha
170,Jdo Civil Y Comercial Nº 2,jdocco0200cha
205,Jdo Familia,jdofam0000cha
132,Jdo Paz,jdopaz0000cha
133,Jdo Paz,jdopaz0000sja
148,Jdo Garantías Y Transición,jezpen0000cha
NA,OGA,ogapen0000cha
NA,OMA,omapen0000cha
224,Unidad Fiscal UFI,ufi0000000cha
400,Ministerio Público La Defensa,def0000000col
280,Equipo Interdisciplinario del Fuero Familia y Menores,eincco0002col
NA,Equipo de Probation,equpen0002col
42,Jdo Civil Y Comercial N 1,jdocco0100col
140,Jdo Civil Y Comercial N 2,jdocco0200col
478,Jdo Familia Y Penal Niños Y Adolescentes Secretaria Nº 1 Civil,jdofam0001col
479,Jdo Familia Y Penal Niños Y Adolescentes Secretaria Nº 2 Penal,jdofam0002col
44,Jdo Paz,jdopaz0000col
46,Jdo Paz,jdopaz0000sjo
391,Jdo Paz,jdopaz0000uba
45,Jdo Paz,jdopaz0000vel
43,Jdo Garantías Y Transición,jezpen0000col
NA,OGA,ogapen0000col
357,Mediación Penal,omapen0000col
188,Unidad Fiscal UFI,ufi0000000col
177,Jdo Familia Civil Y Penal Menores,NA
420,Jdo Familia Y Penal Niños Y Adolescentes,NA
49,Cámara Civil Y Comercial Sala 1,camcco0100con
164,Cámara Civil Y Comercial Sala 2,camcco0200con
50,Cámara Del Trabajo,camlab0000con
184,Defensoría Pobres Y Menores,def0000000con
286,Delegado Penitenciario,delpen0000con
287,Equipo Probation,equpen0004con
487,Fiscalía Cámara,fiscam0000con
51,Jdo Civil Y Comercial N 1,jdocco0100con
52,Jdo Civil Y Comercial N 2,jdocco0200con
53,Jdo Civil Y Comercial N 3,jdocco0300con
54,Jdo Civil Y Comercial N 4,jdocco0400con
488,Jdo Concurso Y Quiebras Secretaria Nº 1,jdocco0501con
489,Jdo Concurso Y Quiebras Secretaria Nº 2,jdocco0502con
65,Jdo Civil y Comercial Nº 6 ex Trabajo N 5,jdocco0600con
55,Jdo Familia Y Penal Niños y Adolescentes Nº 1,jdofam0101con
386,Jdo Familia y Penal Niños y Adolescentes Secretaría Nº 2,jdofam0102con
61,Jdo Familia Y Penal Niños y Adolescentes Nº 2,jdofam0201con
62,Jdo Del Trabajo N 2,jdolab0200con
63,Jdo Del Trabajo N 3,jdolab0300con
64,Jdo Del Trabajo N 4,jdolab0400con
66,Jdo Paz,jdopaz0000con
68,Jdo Paz Estancia Grande,jdopaz0000egr
59,Jdo Garantias Nº 1 Ex Inst N 4,jezpen0100con
58,Jdo Garantias Nº 2 Ex Inst N 3,jezpen0200con
NA,Juez de Garantías 3,jezpen0300con
289,Mesa Unica Informatizada Y Del,muistj0200con
60,Oficina Gestion Audiencias OGA,ogapen0000con
229,Mediación Penal,omapen0000con
48,Tribunal Jucio Y Apelacion,tjapen0000con
182,Unidad Fiscal UFI,ufi0000000con
427,Jdo Concurso Y Quiebras,NA
487,Fiscalía Cámara,fiscam0000con
215,Defensoría Pobres Y Menores,def0000000dia
292,Equipo Interdisciplinario del Fuero Familia y Menores,eincco0003dia
82,Jdo Civil Y Comercial,jdocco0000dia
172,Jdo Familia Civil Y Penal Menores,jdofam0000dia
84,Jdo Paz,jdopaz0000dia
137,Jdo Paz,jdopaz0000ram
83,Jdo Garantías Y Transición,jezpen0000dia
NA,OGA,ogapen0000dia
371,Mediación Penal,omapen0000dia
213,Unidad Fiscal UFI,ufi0000000dia
222,Defensoría Pobres Y Menores,def0000000fed
295,Equipo Interdisciplinario del Fuero Familia y Menores,eincco0004fed
NA,Equipo de Probation,equpen0006fed
85,Jdo Civil y Comercial Primera Instancia,jdocco0000fed
86,Jdo Paz,jdopaz0000fed
87,Jdo Garantías Y Transición,jezpen0000fed
NA,OGA,ogapen0000fed
356,Mediación Penal,omapen0000fed
221,Unidad Fiscal UFI,ufi0000000fed
226,Defensoría Pobres Y Menores,def0000000frl
298,Equipo Interdisciplinario del Fuero Familia y Menores,eincco0005frl
NA,Equipo de Probation,equpen0005frl
88,Jdo Civil y Comercial Primera Instancia,jdocco0000frl
492,Jdo Familia y Menores,jdofam0000frl
89,Jdo Paz,jdopaz0000frl
139,Jdo Paz,jdopaz0000slu
90,Jdo Garantías Y Transición,jezpen0000frl
NA,OGA,ogapen0000frl
NA,OMA,omapen0000frl
225,Unidad Fiscal UFI,ufi0000000frl
219,Defensoría Pobres Y Menores,def0000000fel
302,Equipo Interdisciplinario del Fuero Familia y Menores,eincco0006fel
NA,Equipo de Probation,equpen0007fel
206,Jdo Familia y Menores,jdofam0000fel
92,Jdo Paz,jdopaz0000fel
451,Jdo Garantía Y Transición Comp Civil Comer Y Lab,jezpen0000fel
NA,OGA,ogapen0000fel
361,Mediación Penal,omapen0000fel
212,Unidad Fiscal UFI,ufi0000000fel
202,Defensoría Pobres Y Menores,def0000000gay
311,Delegado Penitenciario,delpen0000gay
146,Delegado Judicial,delpen0102gay
306,Equipo Interdisciplinario del Fuero Familia y Menores,eincco0007gay
308,Equipo Probation,equpen0008gay
94,Jdo Civil Y Comercial Nº1,jdocco0100gay
161,Jdo Civil Y Comercial Nº2,jdocco0200gay
191,Jdo Familia,jdofam0000gay
365,Jdo del Trabajo,jdolab0000gay
96,Jdo Paz,jdopaz0000gal
95,Jdo Paz,jdopaz0000gay
157,Jdo Garantías Y Transición N 1,jezpen0100gay
156,Jdo Garantías Y Transición N 2,jezpen0200gay
395,Mesa Unica Informatizada MUI,muistj0400gay
101,Oficina Gestión Audiencias OGA,ogapen0000gay
370,Mediación Penal,omapen0000gay
460,Tribunal Juicio y Apelaciones,tjapen0000gay
199,Unidad Fiscal UFI,ufi0000000gay
93,Cámara Del Crimen,NA
366,Camara Apelaciones Sala II En Materia Laboral,camlab0000gch
158,Cámara Apelaciones Cyc,camcco0000gch
201,Defensoría Pobres Y Menores,def0000000gch
144,Delegado Judicial,delpen0103gch
NA,Equipo Interdisciplinario del Fuero Familia y Menores,eincco0008gch
NA,Equipo Interdisciplinario Jdo Ejec de Penas,einpen0000gch
NA,Equipo de Probation,equpen0009gch
97,Jdo Civil Y Comercial N 1,jdocco0100gch
98,Jdo Civil Y Comercial N 2,jdocco0200gch
141,Jdo Civil Y Comercial N 3,jdocco0300gch
109,Jdo Familia y Penal Niños y Adolescentes Secretaria Nº 1,jdofam0001gch
481,Jdo Familia y Penal Niños y Adolescentes Secretaria Nº 2,jdofam0002gch
103,Jdo Del Trabajo Nº 1,jdolab0100gch
104,Jdo Del Trabajo Nº 2,jdolab0200gch
105,Jdo Del Trabajo Nº 3,jdolab0300gch
106,Jdo Paz,jdopaz0000gch
108,Jdo Paz,jdopaz0000lar
134,Jdo Paz,jdopaz0000urd
154,Jdo Ejecución Penas y Medidas Seguridad,jdopep0000gch
100,Jdo Garantías Y Transición N 1,jezpen0100gch
99,Jdo Garantías Y Transición N 2,jezpen0200gch
321,MESA DE ENTRADAS UNICA INFORMA,muistj0300gch
102,Oficina Gestión Audiencias OGA,ogapen0000gch
360,Mediación Penal,omapen0000gch
450,Tribunal Juicios Y Apelaciones,tjapen0000gch
198,Unidad Fiscal UFI,ufi0000000gch
482,Jdo Familia Y Penal Niños Y Adolescentes,NA
210,Defensoría Pobres Y Menores,def0000000ibi
149,Jdo 1° Instancia,jdocco0000vpa
457,Jdo Paz,jdopaz0000cei
107,Jdo Paz,jdopaz0000ibi
153,Jdo Paz,jdopaz0000vpa
209,Unidad Fiscal UFI,ufi0000000ibi
214,Defensoría Pobres Y Menores,def0000000lpa
323,Equipo Interdisciplinario del Fuero Familia y Menores,eincco0009lpa
325,Equipo Probation,equpen0010lpa
110,Jdo Civil Y Comercial Nº 1,jdocco0100lpa
163,Jdo Civil Y Comercial Nº 2,jdocco0200lpa
195,Jdo Familia Civil Y Penal Menores,jdofam0000lpa
456,Jdo Paz,jdopaz0000alc
138,Jdo Paz,jdopaz0000bov
113,Jdo Paz,jdopaz0000lpa
114,Jdo Paz,jdopaz0000sel
111,Jdo Garantías Y Transición,jezpen0000lpa
112,Oficina Gestion Audiencias OGA,ogapen0000lpa
NA,OMA,omapen0000lpa
NA,Tribunal de Juicio y Apelaciones de Paraná Con Asiento En La Paz,tjapen0000lpa
211,Unidad Fiscal UFI,ufi0000000lpa
203,Defensoría Pobres Y Menores,def0000000nog
328,Equipo Interdisciplinario del Fuero Familia y Menores,eincco0010nog
169,Jdo Civil Y Comercial N 1,jdocco0100nog
171,Jdo Civil Y Comercial N 2,jdocco0200nog
363,Jdo Familia Y Penal Menores,jdofam0000nog
118,Jdo Paz,jdopaz0000hez
136,Jdo Paz,jdopaz0000lgo
117,Jdo Paz,jdopaz0000nog
115,Jdo Garantías Y Transición,jezpen0000nog
116,Oficina Gestión Audiencias OGA,ogapen0000nog
350,Mediación Penal,omapen0000nog
196,Unidad Fiscal UFI,ufi0000000nog
414,Jdo Instrucción,NA
NA,Equipo de Probation,equpen0011nog
NA,Equipo de Probation,equpen0012par
NA,Tribunal de Juicio y Apelaciones de Gualeguay Con Asiento En Nogoyá,tjapen0000nog
193,Cámara Contencioso Administrativa,camcad0000pna
4,Cámara 2 Civil Y Comercial Sala I,camcco0201pna
424,Cámara 2 Civil Y Comercial Sala II,camcco0202pna
6,Cámara 2 Civil y Comercial Sala III,camcco0203pna
5,Cámara 3 Laboral Sala I,camlab0301pna
208,Cámara 3 Laboral Sala II,camlab0302pna
231,Camara Casación Penal Sala 1,campen0000pna
248,Centro Medios Alternativos Resolución Conflictos,cencco0000pna
216,Defensoría Pobres Y Menores,def0000000pna
181,Defensoria Primera Instancia Penal,def0000100par
462,Defensoria General,defgra0000par
372,Delegado Penitenciario,delpen0000pna
NA,Equipo Interdisciplinario Jdo Ejec Penas,einpen0000pna
NA,Equipo Interdisciplinario -jdo Penal de Nya-,einpen0100pna
218,FISCALIAS DE CAMARA,fiscam0000pna
7,Jdo Civil Y Comercial Nº 1,jdocco0100pna
8,Jdo Civil Y Comercial Nº 2,jdocco0200pna
9,Jdo Civil Y Comercial Nº 3,jdocco0300pna
10,Jdo Civil Y Comercial Nº 4,jdocco0400pna
11,Jdo Civil Y Comercial Nº 5,jdocco0500pna
12,Jdo Civil Y Comercial Nº 6,jdocco0600pna
13,Jdo Civil Y Comercial Nº 7,jdocco0700pna
14,Jdo Civil Y Comercial Nº 8,jdocco0800pna
466,Jdo Civil Y Comercial Nº 9 Secretaria Nº 1,jdocco0901pna
467,Jdo Civil Y Comercial Nº 9 Secretaria Nº 2,jdocco0902pna
463,Jdo Civil Y Comercial Nº 10 Secretaría Nº 1,jdocco1001pna
464,Jdo Civil Y Comercial Nº 10 Secretaría Nº 2,jdocco1002pna
24,Jdo Familia N 1,jdofam0100pna
25,Jdo Familia N 2,jdofam0200pna
392,Jdo Familia N 3,jdofam0300pna
393,Jdo Familia N 4,jdofam0400pna
207,Jdo Del Trabajo N 1,jdolab0100pna
26,Jdo Del Trabajo N 2,jdolab0200pna
27,Jdo Del Trabajo N 3,jdolab0300pna
28,Jdo Del Trabajo N 4,jdolab0400pna
36,Jdo Paz,jdopaz0000cer
33,Jdo Paz,jdopaz0000cre
34,Jdo Paz,jdopaz0000has
35,Jdo Paz,jdopaz0000her
40,Jdo Paz,jdopaz0000mgr
390,Jdo Paz,jdopaz0000ove
37,Jdo Paz,jdopaz0000pbr
368,Jdo Paz,jdopaz0000sbe
38,Jdo Paz,jdopaz0000seg
39,Jdo Paz,jdopaz0000via
41,Jdo Paz,jdopaz0000vur
29,Jdo Paz N 1,jdopaz0100pna
30,Jdo Paz N 2,jdopaz0200pna
152,Jdo Ejecución Penas y Medidas Seguridad,jdopep0000pna
23,Jdo Penal Niños y Adolescentes,jdopna0000pna
NA,Juez de Garantía 1,jezpen0100pna
NA,Juez de Garantía 2,jezpen0200pna
NA,Juez de Garantía 3,jezpen0300pna
NA,Juez de Garantía 4,jezpen0400pna
263,Mesa Unica Informatizada,muistj0100pna
379,Oficina Gestión Audiencias OGA,ogapen0000pna
377,Oficina Medios Alternativos OMA,omapen0000pna
180,Procuración General La Provincia,pro0000000pna
179,Registro Único Adopciones,ruaer00000par
260,Sala Civil Y Comercial N 2,salcco0200pna
261,Sala Laboral N 3,sallab0300pna
262,Sala Procedimientos Constitucionales Y Penal N 1,salpen0100pna
259,Área Contencioso Administrativo,stjcad0000pna
2,Tribunal Juicio y Apelaciones Sala I,tjapen0000pna
374,Jdo Transición Nº1 ex Nº2,transi0100pna
375,Jdo Transición Nº2 ex Nº3,transi0200pna
496,Jdo Paz Secretaria Turno Voluntario,turvol0100pna
217,Unidad Fiscal UFI,ufi0000000pna
167,Jdo Civil Y Comercial Nº 10,NA
166,Jdo Civil Y Comercial Nº 9,NA
16,Jdo Instrucción N 2 NO,NA
17,Jdo Instrucción N 3 NO,NA
483,Jueces Garantias,NA
227,Defensoría Pobres Y Menores,def0000000ssa
200,Jdo Civil Comercial y Del Trabajo,jdocco0000ssa
67,Jdo Paz,jdopaz0000gca
47,Jdo Paz,jdopaz0000ssa
228,Unidad Fiscal UFI,ufi0000000ssa
220,Defensoría Pobres Y Menores,def0000000tal
264,Equipo Interdisciplinario del Fuero Familia y Menores,eincco0011tal
NA,Equipo de Probation,equpen0003ur
NA,Equipo de Probation,equpen0013tal
119,Jdo Civil Y Comercial,jdocco0000tal
364,Jdo Familia Y Penal Niño,jdofam0000tal
122,Jdo Paz,jdopaz0000mac
123,Jdo Paz,jdopaz0000man
121,Jdo Paz,jdopaz0000tal
120,Jdo Garantías Y Transición,jezpen0000tal
NA,OGA,ogapen0000tal
349,Mediación Penal,omapen0000tal
189,Unidad Fiscal UFI,ufi0000000tal
194,Cámara Contencioso Administrativa,camcad0000uru
69,Sala Civil y Comercial,camcco0000uru
70,Cámara Del Trabajo,camlab0000uru
185,Defensoría Pobres Y Menores,def0000000uru
143,Delegado Judicial,delpen0201uru
269,Equipo Probation,equpen0016uru
459,Fiscalia Cámara,fiscam0000uru
71,Jdo Civil Y Comercial N 1,jdocco0100uru
72,Jdo Civil Y Comercial N 2,jdocco0200uru
474,Jdo Civil Y Comercial Nº3 Secretaría Procesos Ejecución,jdocco0301uru
475,Jdo Civil Y Comercial Nº3 Secretaria Concursos y Quiebras,jdocco0302uru
476,Jdo Familia y Penal Niños y Adolescentes Secretaría Nº 1,jdofam0001uru
477,Jdo Familia y Penal Niños y Adolescentes Secretaría Nº 2,jdofam0002uru
76,Jdo Del Trabajo N 1,jdolab0100uru
77,Jdo Del Trabajo N 2,jdolab0200uru
367,Jdo Del Trabajo N 3,jdolab0300uru
135,Jdo Paz,jdopaz0000bas
79,Jdo Paz,jdopaz0000cas
78,Jdo Paz,jdopaz0000uru
151,Jdo Paz,jdopaz0000vma
80,Jdo Paz,jdopaz0000vsa
73,Jdo Garantias Inst N 1,jezpen0100uru
74,Jdo Garantías Ex Inst N 2,jezpen0200uru
270,Mesa Unica Informatizada,muistj0500uru
331,Oficina Gestion Audiencias OGA,ogapen0000uru
352,Mediación Penal,omapen0000uru
444,Tribunal Juicios Y Apelaciones,tjapen0000uru
183,Ministerio Público Fiscal,ufi0000000uru
429,Jdo Civil Y Comercial Nº3,NA
81,Jdo Familia y Penal Niños y Adolescentes,NA
428,Camara Apelaciones,NA
459,Fiscalia Cámara,fiscam0000uru
204,Defensoría Pobres Y Menores,def0000000vic
145,Delegado Judicial,delpen0105vic
342,Delegado Penitenciario,delpen0206vic
339,Equipo Interdisciplinario del Fuero Familia y Menores,eincco0012vic
341,Equipo Probation,equpen0014vic
124,Jdo Civil Y Comercial,jdocco0000vic
178,Jdo Familia Y Penal Niños Y Adolescentes,jdofam0000vic
126,Jdo Paz,jdopaz0000vic
125,Jdo Garantías Y Transición,jezpen0000vic
NA,OGA,ogapen0000vic
343,Mediación Penal,omapen0000vic
197,Unidad Fiscal UFI,ufi0000000vic
401,Ministerio Público La Defensa,def0000000vil
345,Equipo Interdisciplinario del Fuero Familia y Menores,eincco0013vil
NA,Equipo de Probation,equpen0015vil
127,Jdo Civil Y Comercial,jdocco0100vil
162,Jdo Civil Y Comercial N 2,jdocco0200vil
192,Jdo Familia Y Menores,jdofam0000vil
130,Jdo Paz,jdopaz0000vca
131,Jdo Paz,jdopaz0000vdo
129,Jdo Paz,jdopaz0000vil
484,Jdo Garantías Y Transición,jezpen0000vil
NA,OGA,ogapen0000vil
348,Mediación Penal,omapen0000vil
187,Unidad Fiscal UFI,ufi0000000vil
128,Jdo Garantías Y Transición Secretaría Nº 1,NA
485,Jdo Garantías Y Transición Secretaría Nº 2,NA
